Out 19, 2013 11:30:18 AM org.apache.catalina.core.AprLifecycleListener init
INFO: The APR based Apache Tomcat Native library which allows optimal performance in production environments was not found on the java.library.path: c:\Program Files\Java\jdk1.7.0_10\bin;C:\Windows\Sun\Java\bin;C:\Windows\system32;C:\Windows;c:\Users\ensoft56\bin;.;C:\Program Files\Git\local\bin;C:\Program Files\Git\mingw\bin;C:\Program Files\Git\bin;c:\Program Files\Java\jdk1.7.0_10\bin;c:\tcl\bin;c:\program files\winavr-20100110\bin;c:\program files\winavr-20100110\utils\bin;c:\perl\site\bin;c:\perl\bin;c:\program files\miktex 2.7\miktex\bin;c:\windows\system32;c:\windows;c:\windows\system32\wbem;c:\windows\system32\windowspowershell\v1.0\;c:\program files\microsoft sql server\100\tools\binn\;c:\program files\microsoft sql server\100\dts\binn\;c:\program files\miktex 2.9\miktex\bin\;c:\program files\graphviz 2.28\bin;c:\program files\gtk2-runtime\bin;c:\program files\jedit;c:\program files\mercurial\;c:\program files\quicktime\qtsystem\;c:\program files\tortoisesvn\bin;c:\Program Files\MATLAB71\bin\win32;c:\Program Files\unzipado\apache-ant-1.8.4\bin;c:\Program Files\CodeBlocks\MinGW\bin;c:\Python27;c:\Python33;.;c:\Windows\System32\WindowsPowerShell\v1.0\;c:\Windows\System32\WindowsPowerShell\v1.0\;.
Out 19, 2013 11:30:20 AM org.apache.coyote.http11.Http11Protocol init
INFO: Initializing Coyote HTTP/1.1 on http-8080
Out 19, 2013 11:30:20 AM org.apache.catalina.startup.Catalina load
INFO: Initialization processed in 2950 ms
Out 19, 2013 11:30:20 AM org.apache.catalina.core.StandardService start
INFO: Starting service Catalina
Out 19, 2013 11:30:20 AM org.apache.catalina.core.StandardEngine start
INFO: Starting Servlet Engine: Apache Tomcat/6.0.35
Out 19, 2013 11:30:20 AM org.apache.catalina.startup.HostConfig deployDescriptor
INFO: Deploying configuration descriptor host-manager.xml
Out 19, 2013 11:30:21 AM org.apache.catalina.startup.HostConfig deployDescriptor
INFO: Deploying configuration descriptor manager.xml
Out 19, 2013 11:30:21 AM org.apache.catalina.startup.HostConfig deployDescriptor
INFO: Deploying configuration descriptor predict.xml
Out 19, 2013 11:30:22 AM org.apache.catalina.loader.WebappClassLoader validateJarFile
INFO: validateJarFile(C:\Temp\INF300\workspace\Predictions\WEB-INF\lib\servlet-api.jar) - jar not loaded. See Servlet Spec 2.3, section 9.7.2. Offending class: javax/servlet/Servlet.class
Logging directory from web.xml : 'C:\temp\INF300\logs\predict\'
Logging levels from web.xml : 'hirondelle.predict.level=FINEST, hirondelle.web4j.level=FINEST'
Setting up logging config...
Out 19, 2013 11:30:25 AM hirondelle.web4j.webmaster.LoggingConfigImpl addLogger
CONFIG: Adding Logger 'hirondelle.web4j' with level 'FINEST'
Logging file name : 'C:\temp\INF300\logs\predict\2013_10_19_14_30.txt'
Out 19, 2013 11:30:25 AM hirondelle.web4j.webmaster.LoggingConfigImpl hasNoFileHandler
CONFIG: Logger hirondelle.predict has this many existing handlers: 0
Out 19, 2013 11:30:25 AM hirondelle.web4j.webmaster.LoggingConfigImpl hasNoFileHandler
CONFIG: Logger hirondelle.web4j has this many existing handlers: 0
Sending test messages to configured loggers. Please confirm output to above log file.
Out 19, 2013 11:30:25 AM hirondelle.web4j.webmaster.LoggingConfigImpl setup
CONFIG: Logging to directory : 'C:\temp\INF300\logs\predict\'
Out 19, 2013 11:30:25 AM hirondelle.web4j.webmaster.LoggingConfigImpl setup
CONFIG: Current date-time: 2013-10-19 14:30:25.118000000 (uses your TimeSource implementation and the DefaultUserTimeZone setting in web.xml)
Out 19, 2013 11:30:25 AM hirondelle.web4j.webmaster.LoggingConfigImpl setup
CONFIG: Raw value of System.currentTimeMillis(): 1382193025123
Out 19, 2013 11:30:25 AM hirondelle.web4j.webmaster.LoggingConfigImpl showLoggerLevels
CONFIG: Logger hirondelle.predict has level FINEST
Out 19, 2013 11:30:25 AM hirondelle.web4j.webmaster.LoggingConfigImpl showLoggerLevels
CONFIG: Logger hirondelle.web4j has level FINEST
Out 19, 2013 11:30:25 AM hirondelle.web4j.BuildImpl init
CONFIG: ________________________ STARTUP :Initializing WEB4J Controller. Reading in settings in web.xml._________
Out 19, 2013 11:30:25 AM hirondelle.web4j.BuildImpl useStandardOrDefaultNameSecond
CONFIG: For items *not* specified in web.xml, searching for implementations with 'standard' name.
Out 19, 2013 11:30:25 AM hirondelle.web4j.BuildImpl useStandardOrDefaultNameSecond
CONFIG: If no 'standard' implementation found, then will use the WEB4J 'default' implementation.
Out 19, 2013 11:30:25 AM hirondelle.web4j.BuildImpl buildStandardOrDefaultClass
CONFIG: Cannot see any class named 'hirondelle.web4j.config.RequestToAction'. Will use default WEB4J implementation instead, named 'hirondelle.web4j.request.RequestParserImpl'
Out 19, 2013 11:30:25 AM hirondelle.web4j.BuildImpl buildStandardOrDefaultClass
CONFIG: Cannot see any class named 'hirondelle.web4j.config.AppFirewall'. Will use default WEB4J implementation instead, named 'hirondelle.web4j.security.ApplicationFirewallImpl'
Out 19, 2013 11:30:25 AM hirondelle.web4j.BuildImpl buildStandardOrDefaultClass
CONFIG: Cannot see any class named 'hirondelle.web4j.config.ConvertColumns'. Will use default WEB4J implementation instead, named 'hirondelle.web4j.database.ConvertColumnImpl'
Out 19, 2013 11:30:25 AM hirondelle.web4j.BuildImpl buildStandardOrDefaultClass
CONFIG: Cannot see any class named 'hirondelle.web4j.config.LocaleSrc'. Will use default WEB4J implementation instead, named 'hirondelle.web4j.request.LocaleSourceImpl'
Out 19, 2013 11:30:25 AM hirondelle.web4j.BuildImpl buildStandardOrDefaultClass
CONFIG: Cannot see any class named 'hirondelle.web4j.config.TimeZoneSrc'. Will use default WEB4J implementation instead, named 'hirondelle.web4j.request.TimeZoneSourceImpl'
Out 19, 2013 11:30:25 AM hirondelle.web4j.BuildImpl buildStandardOrDefaultClass
CONFIG: Cannot see any class named 'hirondelle.web4j.config.SpamDetect'. Will use default WEB4J implementation instead, named 'hirondelle.web4j.security.SpamDetectorImpl'
Out 19, 2013 11:30:25 AM hirondelle.web4j.BuildImpl buildStandardOrDefaultClass
CONFIG: Cannot see any class named 'hirondelle.web4j.config.Email'. Will use default WEB4J implementation instead, named 'hirondelle.web4j.webmaster.EmailerImpl'
Out 19, 2013 11:30:25 AM hirondelle.web4j.BuildImpl buildStandardOrDefaultClass
CONFIG: Cannot see any class named 'hirondelle.web4j.config.ConvertParams'. Will use default WEB4J implementation instead, named 'hirondelle.web4j.model.ConvertParamImpl'
Out 19, 2013 11:30:25 AM hirondelle.web4j.BuildImpl buildStandardOrDefaultClass
CONFIG: Cannot see any class named 'hirondelle.web4j.config.PermittedChars'. Will use default WEB4J implementation instead, named 'hirondelle.web4j.security.PermittedCharactersImpl'
Out 19, 2013 11:30:25 AM hirondelle.web4j.BuildImpl buildStandardOrDefaultClass
CONFIG: Cannot see any class named 'hirondelle.web4j.config.OwnerFirewall'. Will use default WEB4J implementation instead, named 'hirondelle.web4j.security.UntrustedProxyForUserIdImpl'
Out 19, 2013 11:30:25 AM hirondelle.web4j.BuildImpl init
CONFIG: Mapping of implementation classes : (19) {
  'hirondelle.web4j.ApplicationInfo' = 'class hirondelle.web4j.config.AppInfo'
  'hirondelle.web4j.database.ConnectionSource' = 'class hirondelle.web4j.config.ConnectionSrc'
  'hirondelle.web4j.database.ConvertColumn' = 'class hirondelle.web4j.database.ConvertColumnImpl'
  'hirondelle.web4j.model.ConvertParam' = 'class hirondelle.web4j.model.ConvertParamImpl'
  'hirondelle.web4j.model.ConvertParamError' = 'class hirondelle.web4j.config.ConvertParamErrorImpl'
  'hirondelle.web4j.request.DateConverter' = 'class hirondelle.web4j.config.DateConverterImpl'
  'hirondelle.web4j.request.LocaleSource' = 'class hirondelle.web4j.request.LocaleSourceImpl'
  'hirondelle.web4j.request.RequestParser' = 'class hirondelle.web4j.request.RequestParserImpl'
  'hirondelle.web4j.request.TimeZoneSource' = 'class hirondelle.web4j.request.TimeZoneSourceImpl'
  'hirondelle.web4j.security.ApplicationFirewall' = 'class hirondelle.web4j.security.ApplicationFirewallImpl'
  'hirondelle.web4j.security.LoginTasks' = 'class hirondelle.predict.pub.login.Login'
  'hirondelle.web4j.security.PermittedCharacters' = 'class hirondelle.web4j.security.PermittedCharactersImpl'
  'hirondelle.web4j.security.SpamDetector' = 'class hirondelle.web4j.security.SpamDetectorImpl'
  'hirondelle.web4j.security.UntrustedProxyForUserId' = 'class hirondelle.web4j.security.UntrustedProxyForUserIdImpl'
  'hirondelle.web4j.StartupTasks' = 'class hirondelle.web4j.config.Startup'
  'hirondelle.web4j.ui.translate.Translator' = 'class hirondelle.web4j.config.TranslatorImpl'
  'hirondelle.web4j.util.TimeSource' = 'class hirondelle.web4j.util.TimeSourceImpl'
  'hirondelle.web4j.webmaster.Emailer' = 'class hirondelle.web4j.webmaster.EmailerImpl'
  'hirondelle.web4j.webmaster.LoggingConfig' = 'class hirondelle.web4j.webmaster.LoggingConfigImpl'
}
Out 19, 2013 11:30:25 AM hirondelle.web4j.Controller displaySystemProperties
CONFIG: System Properties (67) {
  'awt.toolkit' = 'sun.awt.windows.WToolkit'
  'catalina.base' = 'c:/Temp/INF300/tomcat'
  'catalina.home' = 'c:/Temp/INF300/tomcat'
  'catalina.useNaming' = 'true'
  'common.loader' = '${catalina.base}/lib,${catalina.base}/lib/*.jar,${catalina.home}/lib,${catalina.home}/lib/*.jar'
  'file.encoding' = 'Cp1252'
  'file.encoding.pkg' = 'sun.io'
  'file.separator' = '\'
  'java.awt.graphicsenv' = 'sun.awt.Win32GraphicsEnvironment'
  'java.awt.printerjob' = 'sun.awt.windows.WPrinterJob'
  'java.class.path' = 'c:/Temp/INF300/tomcat/bin/bootstrap.jar'
  'java.class.version' = '51.0'
  'java.endorsed.dirs' = 'c:/Temp/INF300/tomcat/endorsed'
  'java.ext.dirs' = 'c:\Program Files\Java\jdk1.7.0_10\jre\lib\ext;C:\Windows\Sun\Java\lib\ext'
  'java.home' = 'c:\Program Files\Java\jdk1.7.0_10\jre'
  'java.io.tmpdir' = 'c:/Temp/INF300/tomcat/temp'
  'java.library.path' = 'c:\Program Files\Java\jdk1.7.0_10\bin;C:\Windows\Sun\Java\bin;C:\Windows\system32;C:\Windows;c:\Users\ensoft56\bin;.;C:\Program Files\Git\local\bin;C:\Program Files\Git\mingw\bin;C:\Program Files\Git\bin;c:\Program Files\Java\jdk1.7.0_10\bin;c:\tcl\bin;c:\program files\winavr-20100110\bin;c:\program files\winavr-20100110\utils\bin;c:\perl\site\bin;c:\perl\bin;c:\program files\miktex 2.7\miktex\bin;c:\windows\system32;c:\windows;c:\windows\system32\wbem;c:\windows\system32\windowspowershell\v1.0\;c:\program files\microsoft sql server\100\tools\binn\;c:\program files\microsoft sql server\100\dts\binn\;c:\program files\miktex 2.9\miktex\bin\;c:\program files\graphviz 2.28\bin;c:\program files\gtk2-runtime\bin;c:\program files\jedit;c:\program files\mercurial\;c:\program files\quicktime\qtsystem\;c:\program files\tortoisesvn\bin;c:\Program Files\MATLAB71\bin\win32;c:\Program Files\unzipado\apache-ant-1.8.4\bin;c:\Program Files\CodeBlocks\MinGW\bin;c:\Python27;c:\Python33;.;c:\Windows\System32\WindowsPowerShell\v1.0\;c:\Windows\System32\WindowsPowerShell\v1.0\;.'
  'java.naming.factory.initial' = 'org.apache.naming.java.javaURLContextFactory'
  'java.naming.factory.url.pkgs' = 'org.apache.naming'
  'java.runtime.name' = 'Java(TM) SE Runtime Environment'
  'java.runtime.version' = '1.7.0_10-b18'
  'java.specification.name' = 'Java Platform API Specification'
  'java.specification.vendor' = 'Oracle Corporation'
  'java.specification.version' = '1.7'
  'java.util.logging.config.file' = 'c:/Temp/INF300/tomcat/conf/logging.properties'
  'java.util.logging.manager' = 'org.apache.juli.ClassLoaderLogManager'
  'java.vendor' = 'Oracle Corporation'
  'java.vendor.url' = 'http://java.oracle.com/'
  'java.vendor.url.bug' = 'http://bugreport.sun.com/bugreport/'
  'java.version' = '1.7.0_10'
  'java.vm.info' = 'mixed mode, sharing'
  'java.vm.name' = 'Java HotSpot(TM) Client VM'
  'java.vm.specification.name' = 'Java Virtual Machine Specification'
  'java.vm.specification.vendor' = 'Oracle Corporation'
  'java.vm.specification.version' = '1.7'
  'java.vm.vendor' = 'Oracle Corporation'
  'java.vm.version' = '23.6-b04'
  'line.separator' = '
'
  'os.arch' = 'x86'
  'os.name' = 'Windows 7'
  'os.version' = '6.1'
  'package.access' = 'sun.,org.apache.catalina.,org.apache.coyote.,org.apache.tomcat.,org.apache.jasper.,sun.beans.'
  'package.definition' = 'sun.,java.,org.apache.catalina.,org.apache.coyote.,org.apache.tomcat.,org.apache.jasper.'
  'path.separator' = ';'
  'server.loader' = ''
  'shared.loader' = ''
  'sun.arch.data.model' = '32'
  'sun.boot.class.path' = 'c:\Program Files\Java\jdk1.7.0_10\jre\lib\resources.jar;c:\Program Files\Java\jdk1.7.0_10\jre\lib\rt.jar;c:\Program Files\Java\jdk1.7.0_10\jre\lib\sunrsasign.jar;c:\Program Files\Java\jdk1.7.0_10\jre\lib\jsse.jar;c:\Program Files\Java\jdk1.7.0_10\jre\lib\jce.jar;c:\Program Files\Java\jdk1.7.0_10\jre\lib\charsets.jar;c:\Program Files\Java\jdk1.7.0_10\jre\lib\jfr.jar;c:\Program Files\Java\jdk1.7.0_10\jre\classes'
  'sun.boot.library.path' = 'c:\Program Files\Java\jdk1.7.0_10\jre\bin'
  'sun.cpu.endian' = 'little'
  'sun.cpu.isalist' = 'pentium_pro+mmx pentium_pro pentium+mmx pentium i486 i386 i86'
  'sun.desktop' = 'windows'
  'sun.io.unicode.encoding' = 'UnicodeLittle'
  'sun.java.command' = 'org.apache.catalina.startup.Bootstrap start'
  'sun.java.launcher' = 'SUN_STANDARD'
  'sun.jnu.encoding' = 'Cp1252'
  'sun.management.compiler' = 'HotSpot Client Compiler'
  'sun.os.patch.level' = 'Service Pack 1'
  'tomcat.util.buf.StringCache.byte.enabled' = 'true'
  'user.country' = 'BR'
  'user.dir' = 'C:\Temp\INF300\tomcat\bin'
  'user.home' = 'C:\Users\ensoft56'
  'user.language' = 'pt'
  'user.name' = 'ensoft56'
  'user.script' = ''
  'user.timezone' = 'America/Sao_Paulo'
  'user.variant' = ''
}
Out 19, 2013 11:30:25 AM hirondelle.web4j.Controller displayConfigInfo
CONFIG: Context Name : 'Prediction Tracking'
Out 19, 2013 11:30:25 AM hirondelle.web4j.Controller displayConfigInfo
CONFIG: Context Params : (0) {
}
Out 19, 2013 11:30:25 AM hirondelle.web4j.Controller displayConfigInfo
CONFIG: Servlet Params : (39) {
  'AllowStringAsBuildingBlock' = 'NO'
  'BigDecimalDisplayFormat' = '#.##0,00'
  'BooleanFalseDisplayFormat' = '<input type='checkbox' name='false' value='false' readonly notab>'
  'BooleanTrueDisplayFormat' = '<input type='checkbox' name='true' value='true' checked readonly notab>'
  'CaptchaPrivateKey' = '6LeAR9cSAAAAAPTJOrDa2tRvVPml6rQvYOGuUt2J'
  'CharacterEncoding' = 'UTF-8'
  'DecimalSeparator' = 'COMMA'
  'DecimalStyle' = 'HALF_EVEN,2'
  'DefaultDbConnectionString' = 'java:comp/env/jdbc/predict'
  'DefaultLocale' = 'en'
  'DefaultUserTimeZone' = 'UTC'
  'EmptyOrNullDisplayFormat' = '-'
  'ErrorCodeForDuplicateKey' = '1062'
  'ErrorCodeForForeignKey' = '1216,1217,1451,1452'
  'FetchSize' = '25'
  'FullyValidateFileUploads' = 'ON'
  'HasAutoGeneratedKeys' = 'true'
  'IgnorableParamValue' = ''
  'ImplementationFor.hirondelle.web4j.security.LoginTasks' = 'hirondelle.predict.pub.login.Login'
  'ImplicitMappingRemoveBasePackage' = 'hirondelle.predict'
  'IntegerDisplayFormat' = '#.###'
  'IsSQLPrecompilationAttempted' = 'false'
  'LoggingDirectory' = 'C:\temp\INF300\logs\predict\'
  'LoggingLevels' = 'hirondelle.predict.level=FINEST, hirondelle.web4j.level=FINEST'
  'MailServerConfig' = 'NONE'
  'MailServerCredentials' = 'NONE'
  'MaxFileUploadRequestSize' = '1048576'
  'MaxHttpRequestSize' = '51200'
  'MaxRequestParamValueSize' = '51200'
  'MaxRows' = '0'
  'MinimumIntervalBetweenTroubleTickets' = '30'
  'PoorPerformanceThreshold' = '20'
  'SpamDetectionInFirewall' = 'OFF'
  'SqlEditorDefaultTxIsolationLevel' = 'DATABASE_DEFAULT'
  'SqlFetcherDefaultTxIsolationLevel' = 'DATABASE_DEFAULT'
  'TimeZoneHint' = 'NONE'
  'TroubleTicketMailingList' = 'blah@blah.com'
  'UntrustedProxyForUserId' = 'PredictionAction.*'
  'Webmaster' = 'blah@blah.com'
}
Out 19, 2013 11:30:25 AM hirondelle.web4j.Controller init
FINE: System properties and first app scope items completed 439 ms after start.
Out 19, 2013 11:30:25 AM hirondelle.web4j.request.RequestParameter init
FINE: Max size of request parameter values, from web.xml : 51200
Out 19, 2013 11:30:25 AM hirondelle.web4j.Controller displayVersionInfo
CONFIG: Versions(7) {
  'Application' = 'Predictions/${predict.version}'
  'Java Runtime Environment (JRE)' = '1.7.0_10'
  'Java Server Page API Version' = '2.1'
  'Operating System' = 'Windows 7/6.1'
  'Server' = 'Apache Tomcat/6.0.35'
  'Servlet API Version' = '2.5'
  'WEB4J Version' = 'WEB4J/4.8.0'
}
Out 19, 2013 11:30:25 AM hirondelle.web4j.Controller init
CONFIG: Calling ConnectionSource.init(ServletConfig).
Out 19, 2013 11:30:25 AM hirondelle.web4j.config.ConnectionSrc init
CONFIG: Connection strings : (1) {
  'DEFAULT' = 'java:comp/env/jdbc/predict'
}
Out 19, 2013 11:30:25 AM hirondelle.web4j.Controller init
FINE: Init of internal classes, ConnectionSource completed 500 ms after start.
Out 19, 2013 11:30:25 AM hirondelle.web4j.Controller tryDatabaseInitAndStartupTasks
CONFIG: Attempting data layer startup tasks.
Out 19, 2013 11:30:25 AM hirondelle.web4j.database.DbConfig initDataLayer
FINE: Using web.xml config.
Out 19, 2013 11:30:25 AM hirondelle.web4j.readconfig.InitParam fetch
FINE: Init-param 'DateTimeFormatForPassingParamsToDb' not in web.xml. Using default  : 'YYYY-MM-DD^hh:mm:ss^YYYY-MM-DD hh:mm:ss'
Out 19, 2013 11:30:28 AM hirondelle.web4j.database.DbConfig logDatabaseAndDriverNames
CONFIG: 
  Database Id passed to ConnectionSource: DEFAULT
  Database name: MySQL/5.1.63-0ubuntu0.11.04.1
  Database driver name: MySQL-AB JDBC Driver/mysql-connector-java-5.1.22 ( Revision: ${bzr.revision-id} )
  Database URL: jdbc:mysql://54.221.210.14:3306/pred06?useServerPrepStmts=false
  Supports scrollable ResultSets (TYPE_SCROLL_INSENSITIVE, CONCUR_READ_ONLY): true
Out 19, 2013 11:30:28 AM hirondelle.web4j.database.DbConfig initDataLayer
CONFIG: Success : Database named 'DEFAULT' detected OK.
Out 19, 2013 11:30:28 AM hirondelle.web4j.database.DbConfig queryTxIsolationLevelSupport
CONFIG: Supports Tx Isolation Level SERIALIZABLE: true
Out 19, 2013 11:30:28 AM hirondelle.web4j.database.DbConfig queryTxIsolationLevelSupport
CONFIG: Supports Tx Isolation Level REPEATABLE_READ: true
Out 19, 2013 11:30:28 AM hirondelle.web4j.database.DbConfig queryTxIsolationLevelSupport
CONFIG: Supports Tx Isolation Level READ_COMMITTED: true (default)
Out 19, 2013 11:30:28 AM hirondelle.web4j.database.DbConfig queryTxIsolationLevelSupport
CONFIG: Supports Tx Isolation Level READ_UNCOMMITTED: true
Out 19, 2013 11:30:28 AM hirondelle.web4j.database.DbConfig queryTxIsolationLevelSupport
CONFIG: Supports Tx Isolation Level DATABASE_DEFAULT: false
Out 19, 2013 11:30:28 AM hirondelle.web4j.database.DbConfig initDataLayer
CONFIG: *** SUCCESS : ALL DATABASES DETECTED OK! *** 
Out 19, 2013 11:30:29 AM hirondelle.web4j.readconfig.ConfigReader fetchMany
CONFIG: Desired configuration files under /WEB-INF/: (10) {
  '/WEB-INF/classes/hirondelle/predict/main/codes/code_table.sql'
  '/WEB-INF/classes/hirondelle/predict/main/deleteaccount/statements.sql'
  '/WEB-INF/classes/hirondelle/predict/main/lists/statements.sql'
  '/WEB-INF/classes/hirondelle/predict/main/prediction/statements.sql'
  '/WEB-INF/classes/hirondelle/predict/main/preferences/preferences.sql'
  '/WEB-INF/classes/hirondelle/predict/pub/login/csrf.sql'
  '/WEB-INF/classes/hirondelle/predict/pub/lostpassword/statements.sql'
  '/WEB-INF/classes/hirondelle/predict/pub/register/statements.sql'
  '/WEB-INF/classes/hirondelle/predict/pub/resetpassword/statements.sql'
  '/WEB-INF/classes/hirondelle/predict/pub/search/statements.sql'
}
Out 19, 2013 11:30:29 AM hirondelle.web4j.readconfig.TextBlockReader read
FINE: Reading text block file : '/WEB-INF/classes/hirondelle/predict/main/deleteaccount/statements.sql'
Out 19, 2013 11:30:29 AM hirondelle.web4j.readconfig.TextBlockReader read
FINE: Reading text block file : '/WEB-INF/classes/hirondelle/predict/main/lists/statements.sql'
Out 19, 2013 11:30:29 AM hirondelle.web4j.readconfig.TextBlockReader read
FINE: Reading text block file : '/WEB-INF/classes/hirondelle/predict/main/codes/code_table.sql'
Out 19, 2013 11:30:29 AM hirondelle.web4j.readconfig.TextBlockReader read
FINE: Reading text block file : '/WEB-INF/classes/hirondelle/predict/main/prediction/statements.sql'
Out 19, 2013 11:30:29 AM hirondelle.web4j.readconfig.TextBlockReader read
FINE: Reading text block file : '/WEB-INF/classes/hirondelle/predict/main/preferences/preferences.sql'
Out 19, 2013 11:30:29 AM hirondelle.web4j.readconfig.TextBlockReader read
FINE: Reading text block file : '/WEB-INF/classes/hirondelle/predict/pub/register/statements.sql'
Out 19, 2013 11:30:29 AM hirondelle.web4j.readconfig.TextBlockReader read
FINE: Reading text block file : '/WEB-INF/classes/hirondelle/predict/pub/login/csrf.sql'
Out 19, 2013 11:30:29 AM hirondelle.web4j.readconfig.TextBlockReader read
FINE: Reading text block file : '/WEB-INF/classes/hirondelle/predict/pub/resetpassword/statements.sql'
Out 19, 2013 11:30:29 AM hirondelle.web4j.readconfig.TextBlockReader read
FINE: Reading text block file : '/WEB-INF/classes/hirondelle/predict/pub/lostpassword/statements.sql'
Out 19, 2013 11:30:29 AM hirondelle.web4j.readconfig.TextBlockReader read
FINE: Reading text block file : '/WEB-INF/classes/hirondelle/predict/pub/search/statements.sql'
Out 19, 2013 11:30:29 AM hirondelle.web4j.readconfig.ConfigReader fetchMany
CONFIG: Total number of distinct keys in configuration files : 28
Out 19, 2013 11:30:29 AM hirondelle.web4j.readconfig.ConfigReader logKeysFromManyFiles
CONFIG: (28) {
  'ADD_NEW_USER'
  'ADD_NEW_USER_ROLE'
  'ADD_PREDICTION'
  'CHANGE_PREDICTION'
  'CHANGE_PREFERENCES'
  'DELETE_LISTS'
  'DELETE_PREDICTION'
  'DELETE_PREDICTIONS'
  'DELETE_ROLES'
  'DELETE_USER'
  'FETCH_FORM_SOURCE_ID'
  'FETCH_OUTCOME_CODES'
  'FETCH_OWNER'
  'FETCH_PARTIAL_USER'
  'FETCH_PREDICTION'
  'FETCH_PREFERENCES'
  'LIST_PREDICTIONS'
  'PREDICTION_LIST_ADD'
  'PREDICTION_LIST_CHANGE'
  'PREDICTION_LIST_DELETE'
  'PREDICTION_LIST_FETCH'
  'PREDICTION_LIST_FETCH_PUBLIC'
  'PREDICTION_LIST_LIST'
  'RESET_LOST_PASSWORD'
  'SAVE_FORM_SOURCE_ID'
  'SEARCH_FOR_ALL_OF_THESE_WORDS'
  'SEARCH_FOR_EXACT_PHRASE'
  'SET_TEMP_PASSWORD_NONCE'
}
Out 19, 2013 11:30:29 AM hirondelle.web4j.readconfig.ConfigReader fetchPublicStaticFinalFields
CONFIG: Fetching public static final fields of class hirondelle.web4j.database.SqlId, from all concrete classes.
Out 19, 2013 11:30:29 AM hirondelle.web4j.readconfig.ConfigReader fetchConcreteClassesThatImplement
CONFIG: Fetching all concrete classes.
Out 19, 2013 11:30:29 AM hirondelle.web4j.database.SqlStatement checkSqlFilesVersusSqlIdFields
CONFIG: SqlId fields (28) {
  'ADD_NEW_USER'
  'ADD_NEW_USER_ROLE'
  'ADD_PREDICTION'
  'CHANGE_PREDICTION'
  'CHANGE_PREFERENCES'
  'DELETE_LISTS'
  'DELETE_PREDICTION'
  'DELETE_PREDICTIONS'
  'DELETE_ROLES'
  'DELETE_USER'
  'FETCH_FORM_SOURCE_ID'
  'FETCH_OUTCOME_CODES'
  'FETCH_OWNER'
  'FETCH_PARTIAL_USER'
  'FETCH_PREDICTION'
  'FETCH_PREFERENCES'
  'LIST_PREDICTIONS'
  'PREDICTION_LIST_ADD'
  'PREDICTION_LIST_CHANGE'
  'PREDICTION_LIST_DELETE'
  'PREDICTION_LIST_FETCH'
  'PREDICTION_LIST_FETCH_PUBLIC'
  'PREDICTION_LIST_LIST'
  'RESET_LOST_PASSWORD'
  'SAVE_FORM_SOURCE_ID'
  'SEARCH_FOR_ALL_OF_THESE_WORDS'
  'SEARCH_FOR_EXACT_PHRASE'
  'SET_TEMP_PASSWORD_NONCE'
}
Out 19, 2013 11:30:29 AM hirondelle.web4j.database.SqlStatement checkSqlFilesVersusSqlIdFields
CONFIG: No mismatches found between .sql files and SqlId fields.
Out 19, 2013 11:30:29 AM hirondelle.web4j.database.SqlStatement precompileAll
CONFIG: Attempting precompile of all SQL statements by calling Connection.prepareStatement(String). Precompilation is not supported by all drivers/databases. If not supported, then this checking is not useful. See web.xml.
Out 19, 2013 11:30:29 AM hirondelle.web4j.database.SqlStatement precompileAll
CONFIG: Attempted SQL precompile, and found no failure for : (0) {
}
Out 19, 2013 11:30:29 AM hirondelle.web4j.database.DbConfig checkDbNamesInSettings
FINE: Database names in web.xml settings are consistent with ConnectionSource.getDatabaseNames(): (1) {
  ''
}
Out 19, 2013 11:30:29 AM hirondelle.web4j.Controller initDefaultImplementations
CONFIG: Initializing web4j default implementations.
Out 19, 2013 11:30:29 AM hirondelle.web4j.model.ConvertParamImpl init
FINE: Supported Classes : (15) {
  'boolean'
  'class hirondelle.web4j.model.DateTime'
  'class hirondelle.web4j.model.Decimal'
  'class hirondelle.web4j.model.Id'
  'class hirondelle.web4j.security.SafeText'
  'class java.lang.Boolean'
  'class java.lang.Integer'
  'class java.lang.Long'
  'class java.math.BigDecimal'
  'class java.util.Date'
  'class java.util.Locale'
  'class java.util.TimeZone'
  'class sun.util.calendar.ZoneInfo'
  'int'
  'long'
}
Out 19, 2013 11:30:29 AM hirondelle.web4j.webmaster.EmailerImpl init
FINE: Configured Webmaster : blah@blah.com
Out 19, 2013 11:30:29 AM hirondelle.web4j.webmaster.EmailerImpl init
FINE: Configured MailServerConfig : NONE
Out 19, 2013 11:30:29 AM hirondelle.web4j.readconfig.ConfigReader fetchPublicStaticFinalFields
CONFIG: Fetching public static final fields of class hirondelle.web4j.request.RequestParameter, from concrete classes that implement interface hirondelle.web4j.action.Action
Out 19, 2013 11:30:29 AM hirondelle.web4j.readconfig.ConfigReader fetchConcreteClassesThatImplement
CONFIG: Fetching concrete classes that implement interface hirondelle.web4j.action.Action
Out 19, 2013 11:30:29 AM hirondelle.web4j.security.ApplicationFirewallImpl mapActionsToExpectedParams
CONFIG: Expected Request Parameters per Web Action.(11) {
  'class hirondelle.predict.main.deleteaccount.DeleteAccountAction' = (1) {
    'Name:Operation Regex:(Show|Apply)'
  }
  'class hirondelle.predict.main.lists.PredictionListAction' = (3) {
    'Name:Id Regex:(.){0,51200}'
    'Name:Operation Regex:(List|Add|FetchForChange|Change|Delete)'
    'Name:Title Regex:(.){0,51200}'
  }
  'class hirondelle.predict.main.logoff.LogoffAction' = (0) {
  }
  'class hirondelle.predict.main.prediction.PredictionAction' = (8) {
    'Name:CreationDate Regex:(.){0,51200}'
    'Name:Id Regex:(.){0,51200}'
    'Name:Operation Regex:(List|Add|FetchForChange|Change|Delete)'
    'Name:Outcome Regex:(.){0,51200}'
    'Name:OutcomeDate Regex:(.){0,51200}'
    'Name:ParentId Regex:(.){0,51200}'
    'Name:Remark Regex:(.){0,51200}'
    'Name:Text Regex:(.){0,51200}'
  }
  'class hirondelle.predict.main.preferences.PreferencesAction' = (3) {
    'Name:Locale Regex:(.){0,51200}'
    'Name:Operation Regex:(Show|Apply)'
    'Name:ScreenName Regex:(.){0,51200}'
  }
  'class hirondelle.predict.pub.json.ViewPublicListJsonAction' = (1) {
    'Name:ListId Regex:(.){0,51200}'
  }
  'class hirondelle.predict.pub.lostpassword.LostPasswordAction' = (4) {
    'Name:Email Regex:(.){0,51200}'
    'Name:Operation Regex:(Show|Apply)'
    'Name:recaptcha_challenge_field Regex:(.){0,51200}'
    'Name:recaptcha_response_field Regex:(.){0,51200}'
  }
  'class hirondelle.predict.pub.register.RegisterAction' = (8) {
    'Name:Email Regex:(.){0,51200}'
    'Name:LoginName Regex:(.){0,51200}'
    'Name:Operation Regex:(Show|Apply)'
    'Name:Password Regex:(.){0,51200}'
    'Name:PasswordConfirm Regex:(.){0,51200}'
    'Name:recaptcha_challenge_field Regex:(.){0,51200}'
    'Name:recaptcha_response_field Regex:(.){0,51200}'
    'Name:ScreenName Regex:(.){0,51200}'
  }
  'class hirondelle.predict.pub.resetpassword.ResetPasswordAction' = (7) {
    'Name:Email Regex:(.){0,51200}'
    'Name:Nonce Regex:(.){0,51200}'
    'Name:Operation Regex:(Show|Apply)'
    'Name:Password Regex:(.){0,51200}'
    'Name:PasswordConfirm Regex:(.){0,51200}'
    'Name:recaptcha_challenge_field Regex:(.){0,51200}'
    'Name:recaptcha_response_field Regex:(.){0,51200}'
  }
  'class hirondelle.predict.pub.search.SearchAction' = (5) {
    'Name:End Date Regex:(.){0,51200}'
    'Name:Operation Regex:(Show|Search)'
    'Name:Search Text Regex:(.){0,51200}'
    'Name:SearchStyle Regex:(.){0,51200}'
    'Name:Start Date Regex:(.){0,51200}'
  }
  'class hirondelle.predict.pub.viewlist.ViewPublicListAction' = (1) {
    'Name:ListId Regex:(.){0,51200}'
  }
}
Out 19, 2013 11:30:29 AM hirondelle.web4j.security.UntrustedProxyForUserIdImpl parseSettings
FINE: Parsing ownership constraints defined in web.xml.
Out 19, 2013 11:30:29 AM hirondelle.web4j.security.UntrustedProxyForUserIdImpl init
FINE: (1) {
  'PredictionAction' = (1) {
    '*'
  }
}
Out 19, 2013 11:30:29 AM hirondelle.web4j.readconfig.ConfigReader fetchConcreteClassesThatImplement
CONFIG: Fetching concrete classes that implement interface hirondelle.web4j.action.Action
Out 19, 2013 11:30:29 AM hirondelle.web4j.request.RequestParserImpl initWebActionMappings
CONFIG: URI Mappings : (11) {
  '/main/deleteaccount/DeleteAccountAction' = 'class hirondelle.predict.main.deleteaccount.DeleteAccountAction'
  '/main/lists/PredictionListAction' = 'class hirondelle.predict.main.lists.PredictionListAction'
  '/main/logoff/LogoffAction' = 'class hirondelle.predict.main.logoff.LogoffAction'
  '/main/prediction/PredictionAction' = 'class hirondelle.predict.main.prediction.PredictionAction'
  '/main/preferences/PreferencesAction' = 'class hirondelle.predict.main.preferences.PreferencesAction'
  '/pub/json/ViewPublicListJsonAction' = 'class hirondelle.predict.pub.json.ViewPublicListJsonAction'
  '/pub/lostpassword/LostPasswordAction' = '*****'
  '/pub/register/RegisterAction' = 'class hirondelle.predict.pub.register.RegisterAction'
  '/pub/resetpassword/ResetPasswordAction' = '*****'
  '/pub/search/SearchAction' = 'class hirondelle.predict.pub.search.SearchAction'
  '/pub/viewlist/ViewPublicListAction' = 'class hirondelle.predict.pub.viewlist.ViewPublicListAction'
}
Out 19, 2013 11:30:29 AM hirondelle.web4j.Controller tryDatabaseInitAndStartupTasks
CONFIG: Performing app startup tasks specific to this web application, using its implementation of the StartupTasks interface.
Out 19, 2013 11:30:29 AM hirondelle.predict.main.codes.CodeTableUtil init
FINE: Fetching code tables.
Out 19, 2013 11:30:30 AM hirondelle.predict.main.codes.CodeTableUtil fetchAndRememberCodeTable
FINE: Code Table 'OUTCOMES': (6) {
  '1' = 'Right'
  '2' = 'Mostly Right'
  '3' = 'Half Right'
  '4' = 'Mostly Wrong'
  '5' = 'Wrong'
  '6' = 'Undecidable'
}
Out 19, 2013 11:30:30 AM hirondelle.web4j.Controller init
FINE: Database init and startup tasks completed 5204 ms after start.
Out 19, 2013 11:30:30 AM hirondelle.web4j.CheckModelObjects performChecks
CONFIG: Performing checks on Model Objects for Cross-Site Scripting vulnerabilities and unsupported constructor arguments.
Out 19, 2013 11:30:30 AM hirondelle.web4j.readconfig.ConfigReader fetchConcreteClassesThatImplement
CONFIG: Fetching all concrete classes.
Out 19, 2013 11:30:30 AM hirondelle.web4j.CheckModelObjects logResults
CONFIG: ** SUCCESS *** : Scanned Model Objects for Cross-Site Scripting vulnerabilities. Found 0 incidents.
Out 19, 2013 11:30:30 AM hirondelle.web4j.CheckModelObjects logResults
CONFIG: ** SUCCESS *** : Scanned Model Objects for unsupported constructor arguments. Found 0 incidents.
Out 19, 2013 11:30:30 AM hirondelle.web4j.Controller init
FINE: Cross-Site Scripting scan completed 5258 ms after start.
Out 19, 2013 11:30:30 AM hirondelle.web4j.Controller init
CONFIG: *** SUCCESS : STARTUP COMPLETED SUCCESSFULLY for Predictions ${predict.version}. Total startup time : 5258 ms
Out 19, 2013 11:30:30 AM org.apache.catalina.startup.HostConfig deployDirectory
INFO: Deploying web application directory docs
Out 19, 2013 11:30:30 AM org.apache.catalina.startup.HostConfig deployDirectory
INFO: Deploying web application directory examples
Out 19, 2013 11:30:30 AM org.apache.catalina.startup.HostConfig deployDirectory
INFO: Deploying web application directory ROOT
Out 19, 2013 11:30:30 AM org.apache.coyote.http11.Http11Protocol start
INFO: Starting Coyote HTTP/1.1 on http-8080
Out 19, 2013 11:30:31 AM org.apache.jk.common.ChannelSocket init
INFO: JK: ajp13 listening on /0.0.0.0:8009
Out 19, 2013 11:30:31 AM org.apache.jk.server.JkMain start
INFO: Jk running ID=0 time=0/50  config=null
Out 19, 2013 11:30:31 AM org.apache.catalina.startup.Catalina start
INFO: Server startup in 10675 ms
Out 19, 2013 11:30:31 AM org.apache.catalina.core.StandardServer await
SEVERE: StandardServer.await: create[8005]: 
java.net.BindException: Address already in use: JVM_Bind
	at java.net.DualStackPlainSocketImpl.bind0(Native Method)
	at java.net.DualStackPlainSocketImpl.socketBind(DualStackPlainSocketImpl.java:96)
	at java.net.AbstractPlainSocketImpl.bind(AbstractPlainSocketImpl.java:376)
	at java.net.PlainSocketImpl.bind(PlainSocketImpl.java:175)
	at java.net.ServerSocket.bind(ServerSocket.java:376)
	at java.net.ServerSocket.<init>(ServerSocket.java:237)
	at org.apache.catalina.core.StandardServer.await(StandardServer.java:406)
	at org.apache.catalina.startup.Catalina.await(Catalina.java:676)
	at org.apache.catalina.startup.Catalina.start(Catalina.java:628)
	at sun.reflect.NativeMethodAccessorImpl.invoke0(Native Method)
	at sun.reflect.NativeMethodAccessorImpl.invoke(NativeMethodAccessorImpl.java:57)
	at sun.reflect.DelegatingMethodAccessorImpl.invoke(DelegatingMethodAccessorImpl.java:43)
	at java.lang.reflect.Method.invoke(Method.java:601)
	at org.apache.catalina.startup.Bootstrap.start(Bootstrap.java:289)
	at org.apache.catalina.startup.Bootstrap.main(Bootstrap.java:414)

Out 19, 2013 11:30:31 AM org.apache.coyote.http11.Http11Protocol pause
INFO: Pausing Coyote HTTP/1.1 on http-8080
Out 19, 2013 11:30:32 AM org.apache.catalina.core.StandardService stop
INFO: Stopping service Catalina
Out 19, 2013 11:30:32 AM hirondelle.web4j.Controller destroy
CONFIG: Shutting Down Controller for Predictions/${predict.version}
Out 19, 2013 11:30:32 AM hirondelle.web4j.security.SuppressUnwantedSessions destroy
CONFIG: DESTROY : hirondelle.web4j.security.SuppressUnwantedSessions
Out 19, 2013 11:30:32 AM hirondelle.web4j.security.CsrfFilter destroy
CONFIG: DESTROY : hirondelle.web4j.security.CsrfFilter
Out 19, 2013 11:30:32 AM org.apache.catalina.loader.WebappClassLoader clearReferencesThreads
SEVERE: The web application [/predict] appears to have started a thread named [Abandoned connection cleanup thread] but has failed to stop it. This is very likely to create a memory leak.
Out 19, 2013 11:30:32 AM org.apache.catalina.loader.WebappClassLoader clearReferencesThreads
SEVERE: The web application [/predict] appears to have started a thread named [Abandoned connection cleanup thread] but has failed to stop it. This is very likely to create a memory leak.
Out 19, 2013 11:30:32 AM org.apache.coyote.http11.Http11Protocol destroy
INFO: Stopping Coyote HTTP/1.1 on http-8080
